out/nop/testset_nop_result.out
WARNING: src/mem.v:15: $readmemh(testset_nop.hex): Not enough words in the file for the requested range [0:4095].
tick 000 : rst=1 RESULT                                              EXMA=000000   MAMO=000000   MOWB=000000   WB=000000
tick 001 : rst=0 RESULT                                              EXMA=000000   MAMO=000000   MOWB=000000   WB=000000
tick 002 : rst=0 RESULT                                              EXMA=000000   MAMO=000000   MOWB=000000   WB=000000
tick 003 : rst=0 RESULT                                              EXMA=000000   MAMO=000000   MOWB=000000   WB=000000
tick 004 : rst=0 RESULT                                              EXMA=000000   MAMO=000000   MOWB=000000   WB=000000
tick 005 : rst=0 RESULT                                              EXMA=000000   MAMO=000000   MOWB=000000   WB=000000
tick 006 : rst=0 RESULT                                              EXMA=000000   MAMO=000000   MOWB=000000   WB=000000
tick 007 : rst=0 RESULT                                              EXMA=000000   MAMO=000000   MOWB=000000   WB=000000
tick 008 : rst=0 RESULT                                              EXMA=ffffff   MAMO=000000   MOWB=000000   WB=000000
tick 009 : rst=0 RESULT                                              EXMA=0007ff   MAMO=ffffff   MOWB=000000   WB=000000
tick 010 : rst=0 RESULT                                              EXMA=ffffff   MAMO=0007ff   MOWB=ffffff   WB=000000
tick 011 : rst=0 RESULT                                              EXMA=000000   MAMO=ffffff   MOWB=0007ff   WB=ffffff
tick 012 : rst=0 RESULT                                              EXMA=000000   MAMO=000000   MOWB=ffffff   WB=0007ff
tick 013 : rst=0 RESULT                                              EXMA=0007ff   MAMO=000000   MOWB=000000   WB=ffffff
tick 014 : rst=0 RESULT                                              EXMA=ffffff   MAMO=0007ff   MOWB=000000   WB=000000
tick 015 : rst=0 RESULT                                              EXMA=000001   MAMO=ffffff   MOWB=0007ff   WB=000000
tick 016 : rst=0 RESULT                                              EXMA=000000   MAMO=000001   MOWB=ffffff   WB=0007ff
tick 017 : rst=0 RESULT                                              EXMA=000000   MAMO=000000   MOWB=000001   WB=ffffff
tick 018 : rst=0 RESULT                                              EXMA=000000   MAMO=000000   MOWB=000000   WB=000001
tick 019 : rst=0 RESULT                                              EXMA=000000   MAMO=000000   MOWB=000000   WB=000000
tick 020 : rst=0 RESULT                                              EXMA=0007ff   MAMO=000000   MOWB=000000   WB=000000
tick 021 : rst=0 RESULT                                              EXMA=000000   MAMO=0007ff   MOWB=000000   WB=000000
tick 022 : rst=0 RESULT                                              EXMA=000800   MAMO=000000   MOWB=0007ff   WB=000000
tick 023 : rst=0 RESULT                                              EXMA=ffffff   MAMO=000800   MOWB=000000   WB=0007ff
tick 024 : rst=0 RESULT                                              EXMA=000000   MAMO=ffffff   MOWB=000800   WB=000000
tick 025 : rst=0 RESULT                                              EXMA=000000   MAMO=000000   MOWB=ffffff   WB=000800
tick 026 : rst=0 RESULT                                              EXMA=000000   MAMO=000000   MOWB=000000   WB=ffffff
tick 027 : rst=0 RESULT                                              EXMA=000000   MAMO=000000   MOWB=000000   WB=000000
tick 028 : rst=0 RESULT                                              EXMA=ffffff   MAMO=000000   MOWB=000000   WB=000000
tick 029 : rst=0 RESULT                                              EXMA=000000   MAMO=ffffff   MOWB=000000   WB=000000
tick 030 : rst=0 RESULT                                              EXMA=000000   MAMO=000000   MOWB=ffffff   WB=000000
tick 031 : rst=0 RESULT                                              EXMA=000000   MAMO=000000   MOWB=000000   WB=ffffff
tick 032 : rst=0 RESULT                                              EXMA=000000   MAMO=000000   MOWB=000000   WB=000000
tick 033 : rst=0 RESULT                                              EXMA=000400   MAMO=000000   MOWB=000000   WB=000000
tick 034 : rst=0 RESULT                                              EXMA=000000   MAMO=000400   MOWB=000000   WB=000000
tick 035 : rst=0 RESULT                                              EXMA=000000   MAMO=000000   MOWB=000400   WB=000000
tick 036 : rst=0 RESULT                                              EXMA=000000   MAMO=000000   MOWB=000000   WB=000400
tick 037 : rst=0 RESULT                                              EXMA=000800   MAMO=000000   MOWB=000000   WB=000000
tick 038 : rst=0 RESULT                                              EXMA=ffffff   MAMO=000800   MOWB=000000   WB=000000
tick 039 : rst=0 RESULT                                              EXMA=0007fe   MAMO=ffffff   MOWB=000800   WB=000000
tick 040 : rst=0 RESULT                                              EXMA=000000   MAMO=0007fe   MOWB=ffffff   WB=000800
tick 041 : rst=0 RESULT                                              EXMA=000000   MAMO=000000   MOWB=0007fe   WB=ffffff
tick 042 : rst=0 RESULT                                              EXMA=000801   MAMO=000000   MOWB=000000   WB=0007fe
tick 043 : rst=0 RESULT                                              EXMA=000000   MAMO=000801   MOWB=000000   WB=000000
tick 044 : rst=0 RESULT                                              EXMA=000000   MAMO=000000   MOWB=000801   WB=000000
tick 045 : rst=0 RESULT                                              EXMA=000000   MAMO=000000   MOWB=000000   WB=000801
tick 046 : rst=0 RESULT                                              EXMA=000800   MAMO=000000   MOWB=000000   WB=000000
tick 047 : rst=0 RESULT                                              EXMA=ffffff   MAMO=000800   MOWB=000000   WB=000000
tick 048 : rst=0 RESULT                                              EXMA=fffffe   MAMO=ffffff   MOWB=000800   WB=000000
tick 049 : rst=0 RESULT                                              EXMA=000000   MAMO=fffffe   MOWB=ffffff   WB=000800
tick 050 : rst=0 RESULT                                              EXMA=000000   MAMO=000000   MOWB=fffffe   WB=ffffff
tick 051 : rst=0 RESULT                                              EXMA=000000   MAMO=000000   MOWB=000000   WB=fffffe
tick 052 : rst=0 RESULT                                              EXMA=ffffff   MAMO=000000   MOWB=000000   WB=000000
tick 053 : rst=0 RESULT                                              EXMA=000001   MAMO=ffffff   MOWB=000000   WB=000000
tick 054 : rst=0 RESULT                                              EXMA=000000   MAMO=000001   MOWB=ffffff   WB=000000
tick 055 : rst=0 RESULT                                              EXMA=000000   MAMO=000000   MOWB=000001   WB=ffffff
tick 056 : rst=0 RESULT                                              EXMA=000000   MAMO=000000   MOWB=000000   WB=000001
tick 057 : rst=0 RESULT                                              EXMA=fff803   MAMO=000000   MOWB=000000   WB=000000
tick 058 : rst=0 RESULT                                              EXMA=0007ff   MAMO=fff803   MOWB=000000   WB=000000
tick 059 : rst=0 RESULT                                              EXMA=001000   MAMO=0007ff   MOWB=fff803   WB=000000
tick 060 : rst=0 RESULT                                              EXMA=000000   MAMO=001000   MOWB=0007ff   WB=fff803
tick 061 : rst=0 RESULT                                              EXMA=000000   MAMO=000000   MOWB=001000   WB=0007ff
tick 062 : rst=0 RESULT                                              EXMA=0000f0   MAMO=000000   MOWB=000000   WB=001000
tick 063 : rst=0 RESULT                                              EXMA=000000   MAMO=0000f0   MOWB=000000   WB=000000
tick 064 : rst=0 RESULT                                              EXMA=000000   MAMO=000000   MOWB=0000f0   WB=000000
tick 065 : rst=0 RESULT                                              EXMA=000000   MAMO=000000   MOWB=000000   WB=0000f0
tick 066 : rst=0 RESULT                                              EXMA=000000   MAMO=000000   MOWB=000000   WB=000000
tick 067 : rst=0 RESULT                                              EXMA=000000   MAMO=000000   MOWB=000000   WB=000000
tick 068 : rst=0 RESULT                                              EXMA=000000   MAMO=000000   MOWB=000000   WB=000000
tick 069 : rst=0 RESULT                                              EXMA=000000   MAMO=000000   MOWB=000000   WB=000000
tick 070 : rst=0 RESULT                                              EXMA=000000   MAMO=000000   MOWB=000000   WB=000000
tick 071 : rst=0 RESULT                                              EXMA=000000   MAMO=000000   MOWB=000000   WB=000000
tick 072 : rst=0 RESULT                                              EXMA=000000   MAMO=000000   MOWB=000000   WB=000000
tick 073 : rst=0 RESULT                                              EXMA=000000   MAMO=000000   MOWB=000000   WB=000000
tick 074 : rst=0 RESULT                                              EXMA=000000   MAMO=000000   MOWB=000000   WB=000000
tick 075 : rst=0 RESULT                                              EXMA=0000f0   MAMO=000000   MOWB=000000   WB=000000
tick 076 : rst=0 RESULT                                              EXMA=0007ff   MAMO=0000f0   MOWB=000000   WB=000000
tick 077 : rst=0 RESULT                                              EXMA=0000f0   MAMO=0007ff   MOWB=0000f0   WB=000000
tick 078 : rst=0 RESULT                                              EXMA=ffffff   MAMO=0000f0   MOWB=0007ff   WB=0000f0
tick 079 : rst=0 RESULT                                              EXMA=000000   MAMO=ffffff   MOWB=0000f0   WB=0007ff
tick 080 : rst=0 RESULT                                              EXMA=00070f   MAMO=000000   MOWB=ffffff   WB=0000f0
tick 081 : rst=0 RESULT                                              EXMA=000000   MAMO=00070f   MOWB=000000   WB=ffffff
tick 082 : rst=0 RESULT                                              EXMA=0000ff   MAMO=000000   MOWB=00070f   WB=000000
tick 083 : rst=0 RESULT                                              EXMA=000000   MAMO=0000ff   MOWB=000000   WB=00070f
tick 084 : rst=0 RESULT                                              EXMA=000001   MAMO=000000   MOWB=0000ff   WB=000000
tick 085 : rst=0 RESULT                                              EXMA=000000   MAMO=000001   MOWB=000000   WB=0000ff
tick 086 : rst=0 RESULT                                              EXMA=000000   MAMO=000000   MOWB=000001   WB=000000
tick 087 : rst=0 RESULT                                              EXMA=000000   MAMO=000000   MOWB=000000   WB=000001
tick 088 : rst=0 RESULT                                              EXMA=000e1e   MAMO=000000   MOWB=000000   WB=000000
tick 089 : rst=0 RESULT                                              EXMA=000020   MAMO=000e1e   MOWB=000000   WB=000000
tick 090 : rst=0 RESULT                                              EXMA=000000   MAMO=000020   MOWB=000e1e   WB=000000
tick 091 : rst=0 RESULT                                              EXMA=000000   MAMO=000000   MOWB=000020   WB=000e1e
tick 092 : rst=0 RESULT                                              EXMA=000000   MAMO=000000   MOWB=000000   WB=000020
tick 093 : rst=0 RESULT                                              EXMA=000000   MAMO=000000   MOWB=000000   WB=000000
tick 094 : rst=0 RESULT                                              EXMA=fffff0   MAMO=000000   MOWB=000000   WB=000000
tick 095 : rst=0 RESULT                                              EXMA=000000   MAMO=fffff0   MOWB=000000   WB=000000
tick 096 : rst=0 RESULT                                              EXMA=000004   MAMO=000000   MOWB=fffff0   WB=000000
tick 097 : rst=0 RESULT                                              EXMA=000000   MAMO=000004   MOWB=000000   WB=fffff0
tick 098 : rst=0 RESULT                                              EXMA=000000   MAMO=000000   MOWB=000004   WB=000000
tick 099 : rst=0 RESULT                                              EXMA=000000   MAMO=000000   MOWB=000000   WB=000004
tick 100 : rst=0 RESULT                                              EXMA=0000e1   MAMO=000000   MOWB=000000   WB=000000
tick 101 : rst=0 RESULT                                              EXMA=000020   MAMO=0000e1   MOWB=000000   WB=000000
tick 102 : rst=0 RESULT                                              EXMA=000000   MAMO=000020   MOWB=0000e1   WB=000000
tick 103 : rst=0 RESULT                                              EXMA=000000   MAMO=000000   MOWB=000020   WB=0000e1
tick 104 : rst=0 RESULT                                              EXMA=000000   MAMO=000000   MOWB=000000   WB=000020
tick 105 : rst=0 RESULT                                              EXMA=000000   MAMO=000000   MOWB=000000   WB=000000
tick 106 : rst=0 RESULT                                              EXMA=0fffff   MAMO=000000   MOWB=000000   WB=000000
tick 107 : rst=0 RESULT                                              EXMA=000000   MAMO=0fffff   MOWB=000000   WB=000000
tick 108 : rst=0 RESULT                                              EXMA=000001   MAMO=000000   MOWB=0fffff   WB=000000
tick 109 : rst=0 RESULT                                              EXMA=000000   MAMO=000001   MOWB=000000   WB=0fffff
tick 110 : rst=0 RESULT                                              EXMA=000000   MAMO=000000   MOWB=000001   WB=000000
tick 111 : rst=0 RESULT                                              EXMA=000000   MAMO=000000   MOWB=000000   WB=000001
tick 112 : rst=0 RESULT                                              EXMA=000078   MAMO=000000   MOWB=000000   WB=000000
tick 113 : rst=0 RESULT                                              EXMA=000020   MAMO=000078   MOWB=000000   WB=000000
tick 114 : rst=0 RESULT                                              EXMA=000000   MAMO=000020   MOWB=000078   WB=000000
tick 115 : rst=0 RESULT                                              EXMA=000000   MAMO=000000   MOWB=000020   WB=000078
tick 116 : rst=0 RESULT                                              EXMA=000000   MAMO=000000   MOWB=000000   WB=000020
tick 117 : rst=0 RESULT                                              EXMA=000000   MAMO=000000   MOWB=000000   WB=000000
tick 118 : rst=0 RESULT                                              EXMA=00003c   MAMO=000000   MOWB=000000   WB=000000
tick 119 : rst=0 RESULT                                              EXMA=000000   MAMO=00003c   MOWB=000000   WB=000000
tick 120 : rst=0 RESULT                                              EXMA=000000   MAMO=000000   MOWB=00003c   WB=000000
tick 121 : rst=0 RESULT                                              EXMA=000000   MAMO=000000   MOWB=000000   WB=00003c
tick 122 : rst=0 RESULT                                              EXMA=000000   MAMO=000000   MOWB=000000   WB=000000
tick 123 : rst=0 RESULT                                              EXMA=000000   MAMO=000000   MOWB=000000   WB=000000
tick 124 : rst=0 RESULT                                              EXMA=000000   MAMO=000000   MOWB=000000   WB=000000
tick 125 : rst=0 RESULT                                              EXMA=000000   MAMO=000000   MOWB=000000   WB=000000
tick 126 : rst=0 RESULT                                              EXMA=000000   MAMO=000000   MOWB=000000   WB=000000
tick 127 : rst=0 RESULT                                              EXMA=000000   MAMO=000000   MOWB=000000   WB=000000
tick 128 : rst=0 RESULT                                              EXMA=000000   MAMO=000000   MOWB=000000   WB=000000
tick 129 : rst=0 RESULT                                              EXMA=00007c   MAMO=000000   MOWB=000000   WB=000000
tick 130 : rst=0 RESULT                                              EXMA=000000   MAMO=00007c   MOWB=000000   WB=000000
tick 131 : rst=0 RESULT                                              EXMA=000000   MAMO=000000   MOWB=00007c   WB=000000
tick 132 : rst=0 RESULT                                              EXMA=000000   MAMO=000000   MOWB=000000   WB=00007c
tick 133 : rst=0 RESULT                                              EXMA=000000   MAMO=000000   MOWB=000000   WB=000000
tick 134 : rst=0 RESULT                                              EXMA=000000   MAMO=000000   MOWB=000000   WB=000000
src/testbench.v:22: $finish called at 1345000 (1ps)
