out/nop/testset_nop_gp.out
WARNING: src/mem.v:15: $readmemh(testset_nop.hex): Not enough words in the file for the requested range [0:4095].
tick 000 : rst=1 GP  0=000000 1=000000 2=000000 3=000000 4=000000 5=000000 6=000000 7=000000 8=000000 9=000000 a=000000 b=000000 c=000000 d=000000 e=000000 f=000000
tick 001 : rst=0 GP  0=000000 1=000000 2=000000 3=000000 4=000000 5=000000 6=000000 7=000000 8=000000 9=000000 a=000000 b=000000 c=000000 d=000000 e=000000 f=000000
tick 002 : rst=0 GP  0=000000 1=000000 2=000000 3=000000 4=000000 5=000000 6=000000 7=000000 8=000000 9=000000 a=000000 b=000000 c=000000 d=000000 e=000000 f=000000
tick 003 : rst=0 GP  0=000000 1=000000 2=000000 3=000000 4=000000 5=000000 6=000000 7=000000 8=000000 9=000000 a=000000 b=000000 c=000000 d=000000 e=000000 f=000000
tick 004 : rst=0 GP  0=000000 1=000000 2=000000 3=000000 4=000000 5=000000 6=000000 7=000000 8=000000 9=000000 a=000000 b=000000 c=000000 d=000000 e=000000 f=000000
tick 005 : rst=0 GP  0=000000 1=000000 2=000000 3=000000 4=000000 5=000000 6=000000 7=000000 8=000000 9=000000 a=000000 b=000000 c=000000 d=000000 e=000000 f=000000
tick 006 : rst=0 GP  0=000000 1=000000 2=000000 3=000000 4=000000 5=000000 6=000000 7=000000 8=000000 9=000000 a=000000 b=000000 c=000000 d=000000 e=000000 f=000000
tick 007 : rst=0 GP  0=000000 1=000000 2=000000 3=000000 4=000000 5=000000 6=000000 7=000000 8=000000 9=000000 a=000000 b=000000 c=000000 d=000000 e=000000 f=000000
tick 008 : rst=0 GP  0=000000 1=000000 2=000000 3=000000 4=000000 5=000000 6=000000 7=000000 8=000000 9=000000 a=000000 b=000000 c=000000 d=000000 e=000000 f=000000
tick 009 : rst=0 GP  0=000000 1=000000 2=000000 3=000000 4=000000 5=000000 6=000000 7=000000 8=000000 9=000000 a=000000 b=000000 c=000000 d=000000 e=000000 f=000000
tick 010 : rst=0 GP  0=000000 1=000000 2=000000 3=000000 4=000000 5=000000 6=000000 7=000000 8=000000 9=000000 a=000000 b=000000 c=000000 d=000000 e=000000 f=000000
tick 011 : rst=0 GP  0=000000 1=ffffff 2=000000 3=000000 4=000000 5=000000 6=000000 7=000000 8=000000 9=000000 a=000000 b=000000 c=000000 d=000000 e=000000 f=000000
tick 012 : rst=0 GP  0=000000 1=ffffff 2=0007ff 3=000000 4=000000 5=000000 6=000000 7=000000 8=000000 9=000000 a=000000 b=000000 c=000000 d=000000 e=000000 f=000000
tick 013 : rst=0 GP  0=000000 1=ffffff 2=0007ff 3=ffffff 4=000000 5=000000 6=000000 7=000000 8=000000 9=000000 a=000000 b=000000 c=000000 d=000000 e=000000 f=000000
tick 014 : rst=0 GP  0=000000 1=ffffff 2=0007ff 3=ffffff 4=000000 5=000000 6=000000 7=000000 8=000000 9=000000 a=000000 b=000000 c=000000 d=000000 e=000000 f=000000
tick 015 : rst=0 GP  0=000000 1=ffffff 2=0007ff 3=ffffff 4=000000 5=000000 6=000000 7=000000 8=000000 9=000000 a=000000 b=000000 c=000000 d=000000 e=000000 f=000000
tick 016 : rst=0 GP  0=000000 1=ffffff 2=0007ff 3=ffffff 4=0007ff 5=000000 6=000000 7=000000 8=000000 9=000000 a=000000 b=000000 c=000000 d=000000 e=000000 f=000000
tick 017 : rst=0 GP  0=000000 1=ffffff 2=0007ff 3=ffffff 4=0007ff 5=ffffff 6=000000 7=000000 8=000000 9=000000 a=000000 b=000000 c=000000 d=000000 e=000000 f=000000
tick 018 : rst=0 GP  0=000000 1=ffffff 2=0007ff 3=ffffff 4=0007ff 5=ffffff 6=000001 7=000000 8=000000 9=000000 a=000000 b=000000 c=000000 d=000000 e=000000 f=000000
tick 019 : rst=0 GP  0=000000 1=ffffff 2=0007ff 3=ffffff 4=0007ff 5=ffffff 6=000001 7=000000 8=000000 9=000000 a=000000 b=000000 c=000000 d=000000 e=000000 f=000000
tick 020 : rst=0 GP  0=000000 1=ffffff 2=0007ff 3=ffffff 4=0007ff 5=ffffff 6=000001 7=000000 8=000000 9=000000 a=000000 b=000000 c=000000 d=000000 e=000000 f=000000
tick 021 : rst=0 GP  0=000000 1=ffffff 2=0007ff 3=ffffff 4=0007ff 5=ffffff 6=000001 7=000000 8=000000 9=000000 a=000000 b=000000 c=000000 d=000000 e=000000 f=000000
tick 022 : rst=0 GP  0=000000 1=000000 2=0007ff 3=ffffff 4=0007ff 5=ffffff 6=000001 7=000000 8=000000 9=000000 a=000000 b=000000 c=000000 d=000000 e=000000 f=000000
tick 023 : rst=0 GP  0=000000 1=000000 2=0007ff 3=ffffff 4=0007ff 5=ffffff 6=000001 7=000000 8=000000 9=000000 a=000000 b=000000 c=000000 d=000000 e=000000 f=000000
tick 024 : rst=0 GP  0=000000 1=000000 2=0007ff 3=ffffff 4=0007ff 5=ffffff 6=000001 7=000000 8=000000 9=000000 a=000000 b=000000 c=000000 d=000000 e=000000 f=000000
tick 025 : rst=0 GP  0=000000 1=000000 2=000800 3=ffffff 4=0007ff 5=ffffff 6=000001 7=000000 8=000000 9=000000 a=000000 b=000000 c=000000 d=000000 e=000000 f=000000
tick 026 : rst=0 GP  0=000000 1=ffffff 2=000800 3=ffffff 4=0007ff 5=ffffff 6=000001 7=000000 8=000000 9=000000 a=000000 b=000000 c=000000 d=000000 e=000000 f=000000
tick 027 : rst=0 GP  0=000000 1=ffffff 2=000800 3=ffffff 4=0007ff 5=ffffff 6=000001 7=000000 8=000000 9=000000 a=000000 b=000000 c=000000 d=000000 e=000000 f=000000
tick 028 : rst=0 GP  0=000000 1=ffffff 2=000800 3=ffffff 4=0007ff 5=ffffff 6=000001 7=000000 8=000000 9=000000 a=000000 b=000000 c=000000 d=000000 e=000000 f=000000
tick 029 : rst=0 GP  0=000000 1=ffffff 2=000800 3=ffffff 4=0007ff 5=ffffff 6=000001 7=000000 8=000000 9=000000 a=000000 b=000000 c=000000 d=000000 e=000000 f=000000
tick 030 : rst=0 GP  0=000000 1=000000 2=000800 3=ffffff 4=0007ff 5=ffffff 6=000001 7=000000 8=000000 9=000000 a=000000 b=000000 c=000000 d=000000 e=000000 f=000000
tick 031 : rst=0 GP  0=000000 1=000000 2=000800 3=ffffff 4=0007ff 5=ffffff 6=000001 7=ffffff 8=000000 9=000000 a=000000 b=000000 c=000000 d=000000 e=000000 f=000000
tick 032 : rst=0 GP  0=000000 1=000000 2=000800 3=ffffff 4=0007ff 5=ffffff 6=000001 7=ffffff 8=000000 9=000000 a=000000 b=000000 c=000000 d=000000 e=000000 f=000000
tick 033 : rst=0 GP  0=000000 1=000000 2=000800 3=ffffff 4=0007ff 5=ffffff 6=000001 7=ffffff 8=000000 9=000000 a=000000 b=000000 c=000000 d=000000 e=000000 f=000000
tick 034 : rst=0 GP  0=000000 1=000000 2=000800 3=ffffff 4=0007ff 5=ffffff 6=000001 7=ffffff 8=000000 9=000000 a=000000 b=000000 c=000000 d=000000 e=000000 f=000000
tick 035 : rst=0 GP  0=000000 1=000000 2=000800 3=ffffff 4=0007ff 5=ffffff 6=000000 7=ffffff 8=000000 9=000000 a=000000 b=000000 c=000000 d=000000 e=000000 f=000000
tick 036 : rst=0 GP  0=000000 1=000000 2=000800 3=ffffff 4=0007ff 5=ffffff 6=000000 7=ffffff 8=000400 9=000000 a=000000 b=000000 c=000000 d=000000 e=000000 f=000000
tick 037 : rst=0 GP  0=000000 1=000000 2=000800 3=ffffff 4=0007ff 5=ffffff 6=000000 7=ffffff 8=000400 9=000000 a=000000 b=000000 c=000000 d=000000 e=000000 f=000000
tick 038 : rst=0 GP  0=000000 1=000000 2=000800 3=ffffff 4=0007ff 5=ffffff 6=000000 7=ffffff 8=000400 9=000000 a=000000 b=000000 c=000000 d=000000 e=000000 f=000000
tick 039 : rst=0 GP  0=000000 1=000000 2=000800 3=ffffff 4=0007ff 5=ffffff 6=000000 7=ffffff 8=000400 9=000000 a=000000 b=000000 c=000000 d=000000 e=000000 f=000000
tick 040 : rst=0 GP  0=000000 1=000000 2=000800 3=ffffff 4=0007ff 5=ffffff 6=000000 7=ffffff 8=000800 9=000000 a=000000 b=000000 c=000000 d=000000 e=000000 f=000000
tick 041 : rst=0 GP  0=000000 1=000000 2=000800 3=ffffff 4=0007ff 5=ffffff 6=ffffff 7=ffffff 8=000800 9=000000 a=000000 b=000000 c=000000 d=000000 e=000000 f=000000
tick 042 : rst=0 GP  0=000000 1=000000 2=000800 3=ffffff 4=0007ff 5=ffffff 6=ffffff 7=0007fe 8=000800 9=000000 a=000000 b=000000 c=000000 d=000000 e=000000 f=000000
tick 043 : rst=0 GP  0=000000 1=000000 2=000800 3=ffffff 4=0007ff 5=ffffff 6=ffffff 7=0007fe 8=000800 9=000000 a=000000 b=000000 c=000000 d=000000 e=000000 f=000000
tick 044 : rst=0 GP  0=000000 1=000000 2=000800 3=ffffff 4=0007ff 5=ffffff 6=ffffff 7=0007fe 8=000800 9=000000 a=000000 b=000000 c=000000 d=000000 e=000000 f=000000
tick 045 : rst=0 GP  0=000000 1=000000 2=000801 3=ffffff 4=0007ff 5=ffffff 6=ffffff 7=0007fe 8=000800 9=000000 a=000000 b=000000 c=000000 d=000000 e=000000 f=000000
tick 046 : rst=0 GP  0=000000 1=000000 2=000801 3=ffffff 4=0007ff 5=ffffff 6=ffffff 7=0007fe 8=000800 9=000000 a=000000 b=000000 c=000000 d=000000 e=000000 f=000000
tick 047 : rst=0 GP  0=000000 1=000000 2=000801 3=ffffff 4=0007ff 5=ffffff 6=ffffff 7=0007fe 8=000800 9=000000 a=000000 b=000000 c=000000 d=000000 e=000000 f=000000
tick 048 : rst=0 GP  0=000000 1=000000 2=000801 3=ffffff 4=0007ff 5=ffffff 6=ffffff 7=0007fe 8=000800 9=000000 a=000000 b=000000 c=000000 d=000000 e=000000 f=000000
tick 049 : rst=0 GP  0=000000 1=000000 2=000800 3=ffffff 4=0007ff 5=ffffff 6=ffffff 7=0007fe 8=000800 9=000000 a=000000 b=000000 c=000000 d=000000 e=000000 f=000000
tick 050 : rst=0 GP  0=ffffff 1=000000 2=000800 3=ffffff 4=0007ff 5=ffffff 6=ffffff 7=0007fe 8=000800 9=000000 a=000000 b=000000 c=000000 d=000000 e=000000 f=000000
tick 051 : rst=0 GP  0=ffffff 1=000000 2=000800 3=ffffff 4=0007ff 5=ffffff 6=ffffff 7=0007fe 8=000800 9=fffffe a=000000 b=000000 c=000000 d=000000 e=000000 f=000000
tick 052 : rst=0 GP  0=ffffff 1=000000 2=000800 3=ffffff 4=0007ff 5=ffffff 6=ffffff 7=0007fe 8=000800 9=fffffe a=000000 b=000000 c=000000 d=000000 e=000000 f=000000
tick 053 : rst=0 GP  0=ffffff 1=000000 2=000800 3=ffffff 4=0007ff 5=ffffff 6=ffffff 7=0007fe 8=000800 9=fffffe a=000000 b=000000 c=000000 d=000000 e=000000 f=000000
tick 054 : rst=0 GP  0=ffffff 1=000000 2=000800 3=ffffff 4=0007ff 5=ffffff 6=ffffff 7=0007fe 8=000800 9=fffffe a=000000 b=000000 c=000000 d=000000 e=000000 f=000000
tick 055 : rst=0 GP  0=ffffff 1=000000 2=000800 3=ffffff 4=0007ff 5=ffffff 6=ffffff 7=0007fe 8=000800 9=ffffff a=000000 b=000000 c=000000 d=000000 e=000000 f=000000
tick 056 : rst=0 GP  0=ffffff 1=000000 2=000800 3=ffffff 4=0007ff 5=ffffff 6=ffffff 7=0007fe 8=000800 9=ffffff a=000001 b=000000 c=000000 d=000000 e=000000 f=000000
tick 057 : rst=0 GP  0=ffffff 1=000000 2=000800 3=ffffff 4=0007ff 5=ffffff 6=ffffff 7=0007fe 8=000800 9=ffffff a=000001 b=000000 c=000000 d=000000 e=000000 f=000000
tick 058 : rst=0 GP  0=ffffff 1=000000 2=000800 3=ffffff 4=0007ff 5=ffffff 6=ffffff 7=0007fe 8=000800 9=ffffff a=000001 b=000000 c=000000 d=000000 e=000000 f=000000
tick 059 : rst=0 GP  0=ffffff 1=000000 2=000800 3=ffffff 4=0007ff 5=ffffff 6=ffffff 7=0007fe 8=000800 9=ffffff a=000001 b=000000 c=000000 d=000000 e=000000 f=000000
tick 060 : rst=0 GP  0=ffffff 1=000000 2=000800 3=ffffff 4=0007ff 5=ffffff 6=ffffff 7=0007fe 8=000800 9=ffffff a=fff803 b=000000 c=000000 d=000000 e=000000 f=000000
tick 061 : rst=0 GP  0=ffffff 1=000000 2=000800 3=ffffff 4=0007ff 5=ffffff 6=ffffff 7=0007ff 8=000800 9=ffffff a=fff803 b=000000 c=000000 d=000000 e=000000 f=000000
tick 062 : rst=0 GP  0=ffffff 1=000000 2=000800 3=ffffff 4=0007ff 5=ffffff 6=ffffff 7=0007ff 8=001000 9=ffffff a=fff803 b=000000 c=000000 d=000000 e=000000 f=000000
tick 063 : rst=0 GP  0=000000 1=000000 2=000800 3=ffffff 4=0007ff 5=ffffff 6=ffffff 7=0007ff 8=001000 9=ffffff a=fff803 b=000000 c=000000 d=000000 e=000000 f=000000
tick 064 : rst=0 GP  0=000000 1=000000 2=000800 3=ffffff 4=0007ff 5=000000 6=ffffff 7=0007ff 8=001000 9=ffffff a=fff803 b=000000 c=000000 d=000000 e=000000 f=000000
tick 065 : rst=0 GP  0=000000 1=000000 2=000800 3=ffffff 4=0007ff 5=000000 6=ffffff 7=0007ff 8=001000 9=ffffff a=fff803 b=0000f0 c=000000 d=000000 e=000000 f=000000
tick 066 : rst=0 GP  0=000000 1=000000 2=000800 3=ffffff 4=0007ff 5=000000 6=ffffff 7=0007ff 8=001000 9=ffffff a=fff803 b=0000f0 c=000000 d=000000 e=000000 f=000000
tick 067 : rst=0 GP  0=000000 1=000000 2=000800 3=ffffff 4=0007ff 5=000000 6=ffffff 7=0007ff 8=001000 9=ffffff a=fff803 b=0000f0 c=000000 d=000000 e=000000 f=000000
tick 068 : rst=0 GP  0=000000 1=000000 2=000800 3=ffffff 4=0007ff 5=000000 6=ffffff 7=0007ff 8=001000 9=ffffff a=fff803 b=0000f0 c=000000 d=000000 e=000000 f=000000
tick 069 : rst=0 GP  0=000000 1=000000 2=000000 3=ffffff 4=0007ff 5=000000 6=ffffff 7=0007ff 8=001000 9=ffffff a=fff803 b=0000f0 c=000000 d=000000 e=000000 f=000000
tick 070 : rst=0 GP  0=000000 1=000000 2=000000 3=ffffff 4=0007ff 5=000000 6=ffffff 7=0007ff 8=001000 9=ffffff a=fff803 b=0000f0 c=000000 d=000000 e=000000 f=000000
tick 071 : rst=0 GP  0=000000 1=000000 2=000000 3=ffffff 4=0007ff 5=000000 6=ffffff 7=0007ff 8=001000 9=ffffff a=fff803 b=0000f0 c=000000 d=000000 e=000000 f=000000
tick 072 : rst=0 GP  0=000000 1=000000 2=000000 3=ffffff 4=0007ff 5=000000 6=ffffff 7=0007ff 8=001000 9=ffffff a=fff803 b=0000f0 c=000000 d=000000 e=000000 f=000000
tick 073 : rst=0 GP  0=000000 1=000000 2=000000 3=ffffff 4=0007ff 5=000000 6=ffffff 7=0007ff 8=001000 9=ffffff a=fff803 b=0000f0 c=000000 d=000000 e=000000 f=000000
tick 074 : rst=0 GP  0=000000 1=000000 2=000000 3=000000 4=0007ff 5=000000 6=ffffff 7=0007ff 8=001000 9=ffffff a=fff803 b=0000f0 c=000000 d=000000 e=000000 f=000000
tick 075 : rst=0 GP  0=000000 1=000000 2=000000 3=000000 4=0007ff 5=000000 6=ffffff 7=0007ff 8=001000 9=ffffff a=fff803 b=0000f0 c=000000 d=000000 e=000000 f=000000
tick 076 : rst=0 GP  0=000000 1=000000 2=000000 3=000000 4=0007ff 5=000000 6=ffffff 7=0007ff 8=001000 9=ffffff a=fff803 b=0000f0 c=000000 d=000000 e=000000 f=000000
tick 077 : rst=0 GP  0=000000 1=000000 2=000000 3=000000 4=0007ff 5=000000 6=ffffff 7=0007ff 8=001000 9=ffffff a=fff803 b=0000f0 c=000000 d=000000 e=000000 f=000000
tick 078 : rst=0 GP  0=000000 1=000000 2=000000 3=0000f0 4=0007ff 5=000000 6=ffffff 7=0007ff 8=001000 9=ffffff a=fff803 b=0000f0 c=000000 d=000000 e=000000 f=000000
tick 079 : rst=0 GP  0=000000 1=000000 2=000000 3=0000f0 4=0007ff 5=000000 6=ffffff 7=0007ff 8=001000 9=ffffff a=fff803 b=0000f0 c=000000 d=000000 e=000000 f=000000
tick 080 : rst=0 GP  0=0000f0 1=000000 2=000000 3=0000f0 4=0007ff 5=000000 6=ffffff 7=0007ff 8=001000 9=ffffff a=fff803 b=0000f0 c=000000 d=000000 e=000000 f=000000
tick 081 : rst=0 GP  0=0000f0 1=000000 2=000000 3=0000f0 4=0007ff 5=000000 6=ffffff 7=0007ff 8=001000 9=ffffff a=fff803 b=0000f0 c=000000 d=000000 e=000000 f=000000
tick 082 : rst=0 GP  0=0000f0 1=000000 2=000000 3=0000f0 4=0007ff 5=000000 6=ffffff 7=0007ff 8=001000 9=ffffff a=fff803 b=0000f0 c=000000 d=000000 e=000000 f=000000
tick 083 : rst=0 GP  0=0000f0 1=000000 2=000000 3=0000f0 4=00070f 5=000000 6=ffffff 7=0007ff 8=001000 9=ffffff a=fff803 b=0000f0 c=000000 d=000000 e=000000 f=000000
tick 084 : rst=0 GP  0=0000f0 1=000000 2=000000 3=0000f0 4=00070f 5=000000 6=ffffff 7=0007ff 8=001000 9=ffffff a=fff803 b=0000f0 c=000000 d=000000 e=000000 f=000000
tick 085 : rst=0 GP  0=0000f0 1=0000ff 2=000000 3=0000f0 4=00070f 5=000000 6=ffffff 7=0007ff 8=001000 9=ffffff a=fff803 b=0000f0 c=000000 d=000000 e=000000 f=000000
tick 086 : rst=0 GP  0=0000f0 1=0000ff 2=000000 3=0000f0 4=00070f 5=000000 6=ffffff 7=0007ff 8=001000 9=ffffff a=fff803 b=0000f0 c=000000 d=000000 e=000000 f=000000
tick 087 : rst=0 GP  0=0000f0 1=0000ff 2=000000 3=0000f0 4=00070f 5=000000 6=ffffff 7=0007ff 8=001000 9=ffffff a=fff803 b=0000f0 c=000000 d=000001 e=000000 f=000000
tick 088 : rst=0 GP  0=0000f0 1=0000ff 2=000000 3=0000f0 4=00070f 5=000000 6=ffffff 7=0007ff 8=001000 9=ffffff a=fff803 b=0000f0 c=000000 d=000001 e=000000 f=000000
tick 089 : rst=0 GP  0=0000f0 1=0000ff 2=000000 3=0000f0 4=00070f 5=000000 6=ffffff 7=0007ff 8=001000 9=ffffff a=fff803 b=0000f0 c=000000 d=000001 e=000000 f=000000
tick 090 : rst=0 GP  0=0000f0 1=0000ff 2=000000 3=0000f0 4=00070f 5=000000 6=ffffff 7=0007ff 8=001000 9=ffffff a=fff803 b=0000f0 c=000000 d=000001 e=000000 f=000000
tick 091 : rst=0 GP  0=0000f0 1=0000ff 2=000000 3=0000f0 4=000e1e 5=000000 6=ffffff 7=0007ff 8=001000 9=ffffff a=fff803 b=0000f0 c=000000 d=000001 e=000000 f=000000
tick 092 : rst=0 GP  0=0000f0 1=0000ff 2=000000 3=0000f0 4=000e1e 5=000000 6=ffffff 7=0007ff 8=001000 9=ffffff a=fff803 b=0000f0 c=000000 d=000001 e=000020 f=000000
tick 093 : rst=0 GP  0=0000f0 1=0000ff 2=000000 3=0000f0 4=000e1e 5=000000 6=ffffff 7=0007ff 8=001000 9=ffffff a=fff803 b=0000f0 c=000000 d=000001 e=000020 f=000000
tick 094 : rst=0 GP  0=0000f0 1=0000ff 2=000000 3=0000f0 4=000e1e 5=000000 6=ffffff 7=0007ff 8=001000 9=ffffff a=fff803 b=0000f0 c=000000 d=000001 e=000020 f=000000
tick 095 : rst=0 GP  0=0000f0 1=0000ff 2=000000 3=0000f0 4=000e1e 5=000000 6=ffffff 7=0007ff 8=001000 9=ffffff a=fff803 b=0000f0 c=000000 d=000001 e=000020 f=000000
tick 096 : rst=0 GP  0=0000f0 1=0000ff 2=000000 3=0000f0 4=000e1e 5=000000 6=ffffff 7=0007ff 8=001000 9=ffffff a=fff803 b=0000f0 c=000000 d=000001 e=000020 f=000000
tick 097 : rst=0 GP  0=0000f0 1=0000ff 2=000000 3=0000f0 4=000e1e 5=000000 6=fffff0 7=0007ff 8=001000 9=ffffff a=fff803 b=0000f0 c=000000 d=000001 e=000020 f=000000
tick 098 : rst=0 GP  0=0000f0 1=0000ff 2=000000 3=0000f0 4=000e1e 5=000000 6=fffff0 7=000000 8=001000 9=ffffff a=fff803 b=0000f0 c=000000 d=000001 e=000020 f=000000
tick 099 : rst=0 GP  0=0000f0 1=0000ff 2=000000 3=0000f0 4=000e1e 5=000000 6=fffff0 7=000000 8=001000 9=ffffff a=fff803 b=0000f0 c=000000 d=000001 e=000020 f=000004
tick 100 : rst=0 GP  0=0000f0 1=0000ff 2=000000 3=0000f0 4=000e1e 5=000000 6=fffff0 7=000000 8=001000 9=ffffff a=fff803 b=0000f0 c=000000 d=000001 e=000020 f=000004
tick 101 : rst=0 GP  0=0000f0 1=0000ff 2=000000 3=0000f0 4=000e1e 5=000000 6=fffff0 7=000000 8=001000 9=ffffff a=fff803 b=0000f0 c=000000 d=000001 e=000020 f=000004
tick 102 : rst=0 GP  0=0000f0 1=0000ff 2=000000 3=0000f0 4=000e1e 5=000000 6=fffff0 7=000000 8=001000 9=ffffff a=fff803 b=0000f0 c=000000 d=000001 e=000020 f=000004
tick 103 : rst=0 GP  0=0000f0 1=0000ff 2=000000 3=0000f0 4=0000e1 5=000000 6=fffff0 7=000000 8=001000 9=ffffff a=fff803 b=0000f0 c=000000 d=000001 e=000020 f=000004
tick 104 : rst=0 GP  0=000020 1=0000ff 2=000000 3=0000f0 4=0000e1 5=000000 6=fffff0 7=000000 8=001000 9=ffffff a=fff803 b=0000f0 c=000000 d=000001 e=000020 f=000004
tick 105 : rst=0 GP  0=000020 1=0000ff 2=000000 3=0000f0 4=0000e1 5=000000 6=fffff0 7=000000 8=001000 9=ffffff a=fff803 b=0000f0 c=000000 d=000001 e=000020 f=000004
tick 106 : rst=0 GP  0=000020 1=0000ff 2=000000 3=0000f0 4=0000e1 5=000000 6=fffff0 7=000000 8=001000 9=ffffff a=fff803 b=0000f0 c=000000 d=000001 e=000020 f=000004
tick 107 : rst=0 GP  0=000020 1=0000ff 2=000000 3=0000f0 4=0000e1 5=000000 6=fffff0 7=000000 8=001000 9=ffffff a=fff803 b=0000f0 c=000000 d=000001 e=000020 f=000004
tick 108 : rst=0 GP  0=000020 1=0000ff 2=000000 3=0000f0 4=0000e1 5=000000 6=fffff0 7=000000 8=001000 9=ffffff a=fff803 b=0000f0 c=000000 d=000001 e=000020 f=000004
tick 109 : rst=0 GP  0=000020 1=0000ff 2=000000 3=0000f0 4=0000e1 5=000000 6=0fffff 7=000000 8=001000 9=ffffff a=fff803 b=0000f0 c=000000 d=000001 e=000020 f=000004
tick 110 : rst=0 GP  0=000020 1=0000ff 2=000000 3=0000f0 4=0000e1 5=000000 6=0fffff 7=000000 8=001000 9=ffffff a=fff803 b=0000f0 c=000000 d=000001 e=000020 f=000004
tick 111 : rst=0 GP  0=000020 1=0000ff 2=000000 3=0000f0 4=0000e1 5=000000 6=0fffff 7=000000 8=000001 9=ffffff a=fff803 b=0000f0 c=000000 d=000001 e=000020 f=000004
tick 112 : rst=0 GP  0=000020 1=0000ff 2=000000 3=0000f0 4=0000e1 5=000000 6=0fffff 7=000000 8=000001 9=ffffff a=fff803 b=0000f0 c=000000 d=000001 e=000020 f=000004
tick 113 : rst=0 GP  0=000020 1=0000ff 2=000000 3=0000f0 4=0000e1 5=000000 6=0fffff 7=000000 8=000001 9=ffffff a=fff803 b=0000f0 c=000000 d=000001 e=000020 f=000004
tick 114 : rst=0 GP  0=000020 1=0000ff 2=000000 3=0000f0 4=0000e1 5=000000 6=0fffff 7=000000 8=000001 9=ffffff a=fff803 b=0000f0 c=000000 d=000001 e=000020 f=000004
tick 115 : rst=0 GP  0=000020 1=0000ff 2=000000 3=000078 4=0000e1 5=000000 6=0fffff 7=000000 8=000001 9=ffffff a=fff803 b=0000f0 c=000000 d=000001 e=000020 f=000004
tick 116 : rst=0 GP  0=000020 1=0000ff 2=000000 3=000078 4=0000e1 5=000000 6=0fffff 7=000000 8=000001 9=000020 a=fff803 b=0000f0 c=000000 d=000001 e=000020 f=000004
tick 117 : rst=0 GP  0=000020 1=0000ff 2=000000 3=000078 4=0000e1 5=000000 6=0fffff 7=000000 8=000001 9=000020 a=fff803 b=0000f0 c=000000 d=000001 e=000020 f=000004
tick 118 : rst=0 GP  0=000020 1=0000ff 2=000000 3=000078 4=0000e1 5=000000 6=0fffff 7=000000 8=000001 9=000020 a=fff803 b=0000f0 c=000000 d=000001 e=000020 f=000004
tick 119 : rst=0 GP  0=000020 1=0000ff 2=000000 3=000078 4=0000e1 5=000000 6=0fffff 7=000000 8=000001 9=000020 a=fff803 b=0000f0 c=000000 d=000001 e=000020 f=000004
tick 120 : rst=0 GP  0=000020 1=0000ff 2=000000 3=000078 4=0000e1 5=000000 6=0fffff 7=000000 8=000001 9=000020 a=fff803 b=0000f0 c=000000 d=000001 e=000020 f=000004
tick 121 : rst=0 GP  0=000020 1=0000ff 2=000000 3=00003c 4=0000e1 5=000000 6=0fffff 7=000000 8=000001 9=000020 a=fff803 b=0000f0 c=000000 d=000001 e=000020 f=000004
tick 122 : rst=0 GP  0=000020 1=0000ff 2=000000 3=00003c 4=000000 5=000000 6=0fffff 7=000000 8=000001 9=000020 a=fff803 b=0000f0 c=000000 d=000001 e=000020 f=000004
tick 123 : rst=0 GP  0=000020 1=0000ff 2=000000 3=00003c 4=000000 5=000000 6=0fffff 7=000000 8=000001 9=000020 a=fff803 b=0000f0 c=000000 d=000001 e=000020 f=000004
tick 124 : rst=0 GP  0=000020 1=0000ff 2=000000 3=00003c 4=000000 5=000000 6=0fffff 7=000000 8=000001 9=000020 a=fff803 b=0000f0 c=000000 d=000001 e=000020 f=000004
tick 125 : rst=0 GP  0=000020 1=0000ff 2=000000 3=00003c 4=000000 5=000000 6=0fffff 7=000000 8=000001 9=000020 a=fff803 b=0000f0 c=000000 d=000001 e=000020 f=000004
tick 126 : rst=0 GP  0=000020 1=0000ff 2=000000 3=00003c 4=000000 5=000000 6=0fffff 7=000000 8=000001 9=000020 a=fff803 b=0000f0 c=000000 d=000001 e=000020 f=000004
tick 127 : rst=0 GP  0=000020 1=0000ff 2=000000 3=00003c 4=000000 5=000000 6=0fffff 7=000000 8=000001 9=000020 a=fff803 b=0000f0 c=000000 d=000001 e=000020 f=000004
tick 128 : rst=0 GP  0=000020 1=0000ff 2=000000 3=00003c 4=000000 5=000000 6=0fffff 7=000000 8=000001 9=000020 a=fff803 b=0000f0 c=000000 d=000001 e=000020 f=000004
tick 129 : rst=0 GP  0=000020 1=0000ff 2=000000 3=00003c 4=000000 5=000000 6=0fffff 7=000000 8=000001 9=000020 a=fff803 b=0000f0 c=000000 d=000001 e=000020 f=000004
tick 130 : rst=0 GP  0=000020 1=0000ff 2=000000 3=00003c 4=000000 5=000000 6=0fffff 7=000000 8=000001 9=000020 a=fff803 b=0000f0 c=000000 d=000001 e=000020 f=000004
tick 131 : rst=0 GP  0=000020 1=0000ff 2=000000 3=00003c 4=000000 5=000000 6=0fffff 7=000000 8=000001 9=000020 a=fff803 b=0000f0 c=000000 d=000001 e=000020 f=000004
tick 132 : rst=0 GP  0=000020 1=0000ff 2=000000 3=00003c 4=000000 5=000000 6=0fffff 7=000000 8=000001 9=000020 a=fff803 b=0000f0 c=000000 d=000001 e=000020 f=000004
tick 133 : rst=0 GP  0=000020 1=0000ff 2=000000 3=00003c 4=000000 5=000000 6=0fffff 7=000000 8=000001 9=000020 a=fff803 b=0000f0 c=000000 d=000001 e=000020 f=000004
tick 134 : rst=0 GP  0=000020 1=0000ff 2=000000 3=00003c 4=000000 5=000000 6=0fffff 7=000000 8=000001 9=000020 a=fff803 b=0000f0 c=000000 d=000001 e=000020 f=000004
src/testbench.v:22: $finish called at 1345000 (1ps)
