tst/old/out/nop/testset_nop_decode.out
WARNING: src/mem.v:15: $readmemh(testset_nop.hex): Not enough words in the file for the requested range [0:4095].
tick 000 : rst=1 DECODE OPC=NOP      SGN_EN=0 IMM_EN=0 IMM_VAL=000 IMMSR_VAL=00 CC=RA TGT_GP=0 TGT_SR=0 SRC_GP=0 SRC_SR=0
tick 001 : rst=0 DECODE OPC=NOP      SGN_EN=0 IMM_EN=0 IMM_VAL=000 IMMSR_VAL=00 CC=RA TGT_GP=0 TGT_SR=0 SRC_GP=0 SRC_SR=0
tick 002 : rst=0 DECODE OPC=NOP      SGN_EN=0 IMM_EN=0 IMM_VAL=000 IMMSR_VAL=00 CC=RA TGT_GP=0 TGT_SR=0 SRC_GP=0 SRC_SR=0
tick 003 : rst=0 DECODE OPC=NOP      SGN_EN=0 IMM_EN=0 IMM_VAL=000 IMMSR_VAL=00 CC=RA TGT_GP=0 TGT_SR=0 SRC_GP=0 SRC_SR=0
tick 004 : rst=0 DECODE OPC=S_LUI    SGN_EN=0 IMM_EN=1 IMM_VAL=000 IMMSR_VAL=00 CC=RA TGT_GP=0 TGT_SR=0 SRC_GP=0 SRC_SR=0
tick 005 : rst=0 DECODE OPC=I_MOVi   SGN_EN=0 IMM_EN=1 IMM_VAL=000 IMMSR_VAL=00 CC=RA TGT_GP=0 TGT_SR=0 SRC_GP=0 SRC_SR=0
tick 006 : rst=0 DECODE OPC=S_LUI    SGN_EN=0 IMM_EN=1 IMM_VAL=fff IMMSR_VAL=00 CC=RA TGT_GP=0 TGT_SR=0 SRC_GP=0 SRC_SR=0
tick 007 : rst=0 DECODE OPC=I_MOVi   SGN_EN=0 IMM_EN=1 IMM_VAL=fff IMMSR_VAL=00 CC=RA TGT_GP=1 TGT_SR=0 SRC_GP=0 SRC_SR=0
tick 008 : rst=0 DECODE OPC=IS_MOVis SGN_EN=1 IMM_EN=1 IMM_VAL=7ff IMMSR_VAL=00 CC=RA TGT_GP=2 TGT_SR=0 SRC_GP=0 SRC_SR=0
tick 009 : rst=0 DECODE OPC=IS_MOVis SGN_EN=1 IMM_EN=1 IMM_VAL=fff IMMSR_VAL=00 CC=RA TGT_GP=3 TGT_SR=0 SRC_GP=0 SRC_SR=0
tick 010 : rst=0 DECODE OPC=NOP      SGN_EN=0 IMM_EN=0 IMM_VAL=000 IMMSR_VAL=00 CC=RA TGT_GP=0 TGT_SR=0 SRC_GP=0 SRC_SR=0
tick 011 : rst=0 DECODE OPC=NOP      SGN_EN=0 IMM_EN=0 IMM_VAL=000 IMMSR_VAL=00 CC=RA TGT_GP=0 TGT_SR=0 SRC_GP=0 SRC_SR=0
tick 012 : rst=0 DECODE OPC=R_MOV    SGN_EN=0 IMM_EN=0 IMM_VAL=000 IMMSR_VAL=00 CC=RA TGT_GP=4 TGT_SR=0 SRC_GP=2 SRC_SR=0
tick 013 : rst=0 DECODE OPC=R_MOV    SGN_EN=0 IMM_EN=0 IMM_VAL=000 IMMSR_VAL=00 CC=RA TGT_GP=5 TGT_SR=0 SRC_GP=3 SRC_SR=0
tick 014 : rst=0 DECODE OPC=IS_MOVis SGN_EN=1 IMM_EN=1 IMM_VAL=001 IMMSR_VAL=00 CC=RA TGT_GP=6 TGT_SR=0 SRC_GP=0 SRC_SR=0
tick 015 : rst=0 DECODE OPC=NOP      SGN_EN=0 IMM_EN=0 IMM_VAL=000 IMMSR_VAL=00 CC=RA TGT_GP=0 TGT_SR=0 SRC_GP=0 SRC_SR=0
tick 016 : rst=0 DECODE OPC=NOP      SGN_EN=0 IMM_EN=0 IMM_VAL=000 IMMSR_VAL=00 CC=RA TGT_GP=0 TGT_SR=0 SRC_GP=0 SRC_SR=0
tick 017 : rst=0 DECODE OPC=NOP      SGN_EN=0 IMM_EN=0 IMM_VAL=000 IMMSR_VAL=00 CC=RA TGT_GP=0 TGT_SR=0 SRC_GP=0 SRC_SR=0
tick 018 : rst=0 DECODE OPC=R_ADD    SGN_EN=0 IMM_EN=0 IMM_VAL=000 IMMSR_VAL=00 CC=RA TGT_GP=1 TGT_SR=0 SRC_GP=6 SRC_SR=0
tick 019 : rst=0 DECODE OPC=R_ADD    SGN_EN=0 IMM_EN=0 IMM_VAL=000 IMMSR_VAL=00 CC=RA TGT_GP=2 TGT_SR=0 SRC_GP=0 SRC_SR=0
tick 020 : rst=0 DECODE OPC=S_LUI    SGN_EN=0 IMM_EN=1 IMM_VAL=000 IMMSR_VAL=00 CC=RA TGT_GP=0 TGT_SR=0 SRC_GP=0 SRC_SR=0
tick 021 : rst=0 DECODE OPC=I_ADDi   SGN_EN=0 IMM_EN=1 IMM_VAL=001 IMMSR_VAL=00 CC=RA TGT_GP=2 TGT_SR=0 SRC_GP=0 SRC_SR=0
tick 022 : rst=0 DECODE OPC=IS_MOVis SGN_EN=1 IMM_EN=1 IMM_VAL=fff IMMSR_VAL=00 CC=RA TGT_GP=1 TGT_SR=0 SRC_GP=0 SRC_SR=0
tick 023 : rst=0 DECODE OPC=NOP      SGN_EN=0 IMM_EN=0 IMM_VAL=000 IMMSR_VAL=00 CC=RA TGT_GP=0 TGT_SR=0 SRC_GP=0 SRC_SR=0
tick 024 : rst=0 DECODE OPC=NOP      SGN_EN=0 IMM_EN=0 IMM_VAL=000 IMMSR_VAL=00 CC=RA TGT_GP=0 TGT_SR=0 SRC_GP=0 SRC_SR=0
tick 025 : rst=0 DECODE OPC=NOP      SGN_EN=0 IMM_EN=0 IMM_VAL=000 IMMSR_VAL=00 CC=RA TGT_GP=0 TGT_SR=0 SRC_GP=0 SRC_SR=0
tick 026 : rst=0 DECODE OPC=I_ADDi   SGN_EN=0 IMM_EN=1 IMM_VAL=001 IMMSR_VAL=00 CC=RA TGT_GP=1 TGT_SR=0 SRC_GP=0 SRC_SR=0
tick 027 : rst=0 DECODE OPC=IS_MOVis SGN_EN=1 IMM_EN=1 IMM_VAL=fff IMMSR_VAL=00 CC=RA TGT_GP=7 TGT_SR=0 SRC_GP=0 SRC_SR=0
tick 028 : rst=0 DECODE OPC=NOP      SGN_EN=0 IMM_EN=0 IMM_VAL=000 IMMSR_VAL=00 CC=RA TGT_GP=0 TGT_SR=0 SRC_GP=0 SRC_SR=0
tick 029 : rst=0 DECODE OPC=NOP      SGN_EN=0 IMM_EN=0 IMM_VAL=000 IMMSR_VAL=00 CC=RA TGT_GP=0 TGT_SR=0 SRC_GP=0 SRC_SR=0
tick 030 : rst=0 DECODE OPC=NOP      SGN_EN=0 IMM_EN=0 IMM_VAL=000 IMMSR_VAL=00 CC=RA TGT_GP=0 TGT_SR=0 SRC_GP=0 SRC_SR=0
tick 031 : rst=0 DECODE OPC=RS_ADDs  SGN_EN=1 IMM_EN=0 IMM_VAL=000 IMMSR_VAL=00 CC=RA TGT_GP=6 TGT_SR=0 SRC_GP=7 SRC_SR=0
tick 032 : rst=0 DECODE OPC=IS_MOVis SGN_EN=1 IMM_EN=1 IMM_VAL=400 IMMSR_VAL=00 CC=RA TGT_GP=8 TGT_SR=0 SRC_GP=0 SRC_SR=0
tick 033 : rst=0 DECODE OPC=NOP      SGN_EN=0 IMM_EN=0 IMM_VAL=000 IMMSR_VAL=00 CC=RA TGT_GP=0 TGT_SR=0 SRC_GP=0 SRC_SR=0
tick 034 : rst=0 DECODE OPC=NOP      SGN_EN=0 IMM_EN=0 IMM_VAL=000 IMMSR_VAL=00 CC=RA TGT_GP=0 TGT_SR=0 SRC_GP=0 SRC_SR=0
tick 035 : rst=0 DECODE OPC=NOP      SGN_EN=0 IMM_EN=0 IMM_VAL=000 IMMSR_VAL=00 CC=RA TGT_GP=0 TGT_SR=0 SRC_GP=0 SRC_SR=0
tick 036 : rst=0 DECODE OPC=RS_ADDs  SGN_EN=1 IMM_EN=0 IMM_VAL=000 IMMSR_VAL=00 CC=RA TGT_GP=8 TGT_SR=0 SRC_GP=8 SRC_SR=0
tick 037 : rst=0 DECODE OPC=IS_ADDis SGN_EN=1 IMM_EN=1 IMM_VAL=fff IMMSR_VAL=00 CC=RA TGT_GP=6 TGT_SR=0 SRC_GP=0 SRC_SR=0
tick 038 : rst=0 DECODE OPC=IS_ADDis SGN_EN=1 IMM_EN=1 IMM_VAL=7ff IMMSR_VAL=00 CC=RA TGT_GP=7 TGT_SR=0 SRC_GP=0 SRC_SR=0
tick 039 : rst=0 DECODE OPC=NOP      SGN_EN=0 IMM_EN=0 IMM_VAL=000 IMMSR_VAL=00 CC=RA TGT_GP=0 TGT_SR=0 SRC_GP=0 SRC_SR=0
tick 040 : rst=0 DECODE OPC=NOP      SGN_EN=0 IMM_EN=0 IMM_VAL=000 IMMSR_VAL=00 CC=RA TGT_GP=0 TGT_SR=0 SRC_GP=0 SRC_SR=0
tick 041 : rst=0 DECODE OPC=R_SUB    SGN_EN=0 IMM_EN=0 IMM_VAL=000 IMMSR_VAL=00 CC=RA TGT_GP=2 TGT_SR=0 SRC_GP=6 SRC_SR=0
tick 042 : rst=0 DECODE OPC=R_SUB    SGN_EN=0 IMM_EN=0 IMM_VAL=000 IMMSR_VAL=00 CC=RA TGT_GP=0 TGT_SR=0 SRC_GP=1 SRC_SR=0
tick 043 : rst=0 DECODE OPC=NOP      SGN_EN=0 IMM_EN=0 IMM_VAL=000 IMMSR_VAL=00 CC=RA TGT_GP=0 TGT_SR=0 SRC_GP=0 SRC_SR=0
tick 044 : rst=0 DECODE OPC=NOP      SGN_EN=0 IMM_EN=0 IMM_VAL=000 IMMSR_VAL=00 CC=RA TGT_GP=0 TGT_SR=0 SRC_GP=0 SRC_SR=0
tick 045 : rst=0 DECODE OPC=I_SUBi   SGN_EN=0 IMM_EN=1 IMM_VAL=001 IMMSR_VAL=00 CC=RA TGT_GP=2 TGT_SR=0 SRC_GP=0 SRC_SR=0
tick 046 : rst=0 DECODE OPC=I_SUBi   SGN_EN=0 IMM_EN=1 IMM_VAL=001 IMMSR_VAL=00 CC=RA TGT_GP=0 TGT_SR=0 SRC_GP=0 SRC_SR=0
tick 047 : rst=0 DECODE OPC=IS_MOVis SGN_EN=1 IMM_EN=1 IMM_VAL=ffe IMMSR_VAL=00 CC=RA TGT_GP=9 TGT_SR=0 SRC_GP=0 SRC_SR=0
tick 048 : rst=0 DECODE OPC=NOP      SGN_EN=0 IMM_EN=0 IMM_VAL=000 IMMSR_VAL=00 CC=RA TGT_GP=0 TGT_SR=0 SRC_GP=0 SRC_SR=0
tick 049 : rst=0 DECODE OPC=NOP      SGN_EN=0 IMM_EN=0 IMM_VAL=000 IMMSR_VAL=00 CC=RA TGT_GP=0 TGT_SR=0 SRC_GP=0 SRC_SR=0
tick 050 : rst=0 DECODE OPC=NOP      SGN_EN=0 IMM_EN=0 IMM_VAL=000 IMMSR_VAL=00 CC=RA TGT_GP=0 TGT_SR=0 SRC_GP=0 SRC_SR=0
tick 051 : rst=0 DECODE OPC=RS_SUBs  SGN_EN=1 IMM_EN=0 IMM_VAL=000 IMMSR_VAL=00 CC=RA TGT_GP=9 TGT_SR=0 SRC_GP=6 SRC_SR=0
tick 052 : rst=0 DECODE OPC=IS_MOVis SGN_EN=1 IMM_EN=1 IMM_VAL=001 IMMSR_VAL=00 CC=RA TGT_GP=a TGT_SR=0 SRC_GP=0 SRC_SR=0
tick 053 : rst=0 DECODE OPC=NOP      SGN_EN=0 IMM_EN=0 IMM_VAL=000 IMMSR_VAL=00 CC=RA TGT_GP=0 TGT_SR=0 SRC_GP=0 SRC_SR=0
tick 054 : rst=0 DECODE OPC=NOP      SGN_EN=0 IMM_EN=0 IMM_VAL=000 IMMSR_VAL=00 CC=RA TGT_GP=0 TGT_SR=0 SRC_GP=0 SRC_SR=0
tick 055 : rst=0 DECODE OPC=NOP      SGN_EN=0 IMM_EN=0 IMM_VAL=000 IMMSR_VAL=00 CC=RA TGT_GP=0 TGT_SR=0 SRC_GP=0 SRC_SR=0
tick 056 : rst=0 DECODE OPC=RS_SUBs  SGN_EN=1 IMM_EN=0 IMM_VAL=000 IMMSR_VAL=00 CC=RA TGT_GP=a TGT_SR=0 SRC_GP=7 SRC_SR=0
tick 057 : rst=0 DECODE OPC=IS_SUBis SGN_EN=1 IMM_EN=1 IMM_VAL=fff IMMSR_VAL=00 CC=RA TGT_GP=7 TGT_SR=0 SRC_GP=0 SRC_SR=0
tick 058 : rst=0 DECODE OPC=IS_SUBis SGN_EN=1 IMM_EN=1 IMM_VAL=800 IMMSR_VAL=00 CC=RA TGT_GP=8 TGT_SR=0 SRC_GP=0 SRC_SR=0
tick 059 : rst=0 DECODE OPC=R_NOT    SGN_EN=0 IMM_EN=0 IMM_VAL=000 IMMSR_VAL=00 CC=RA TGT_GP=0 TGT_SR=0 SRC_GP=0 SRC_SR=0
tick 060 : rst=0 DECODE OPC=R_NOT    SGN_EN=0 IMM_EN=0 IMM_VAL=000 IMMSR_VAL=00 CC=RA TGT_GP=5 TGT_SR=0 SRC_GP=0 SRC_SR=0
tick 061 : rst=0 DECODE OPC=IS_MOVis SGN_EN=1 IMM_EN=1 IMM_VAL=0f0 IMMSR_VAL=00 CC=RA TGT_GP=b TGT_SR=0 SRC_GP=0 SRC_SR=0
tick 062 : rst=0 DECODE OPC=NOP      SGN_EN=0 IMM_EN=0 IMM_VAL=000 IMMSR_VAL=00 CC=RA TGT_GP=0 TGT_SR=0 SRC_GP=0 SRC_SR=0
tick 063 : rst=0 DECODE OPC=NOP      SGN_EN=0 IMM_EN=0 IMM_VAL=000 IMMSR_VAL=00 CC=RA TGT_GP=0 TGT_SR=0 SRC_GP=0 SRC_SR=0
tick 064 : rst=0 DECODE OPC=NOP      SGN_EN=0 IMM_EN=0 IMM_VAL=000 IMMSR_VAL=00 CC=RA TGT_GP=0 TGT_SR=0 SRC_GP=0 SRC_SR=0
tick 065 : rst=0 DECODE OPC=R_AND    SGN_EN=0 IMM_EN=0 IMM_VAL=000 IMMSR_VAL=00 CC=RA TGT_GP=2 TGT_SR=0 SRC_GP=b SRC_SR=0
tick 066 : rst=0 DECODE OPC=IS_MOVis SGN_EN=1 IMM_EN=1 IMM_VAL=000 IMMSR_VAL=00 CC=RA TGT_GP=c TGT_SR=0 SRC_GP=0 SRC_SR=0
tick 067 : rst=0 DECODE OPC=NOP      SGN_EN=0 IMM_EN=0 IMM_VAL=000 IMMSR_VAL=00 CC=RA TGT_GP=0 TGT_SR=0 SRC_GP=0 SRC_SR=0
tick 068 : rst=0 DECODE OPC=NOP      SGN_EN=0 IMM_EN=0 IMM_VAL=000 IMMSR_VAL=00 CC=RA TGT_GP=0 TGT_SR=0 SRC_GP=0 SRC_SR=0
tick 069 : rst=0 DECODE OPC=NOP      SGN_EN=0 IMM_EN=0 IMM_VAL=000 IMMSR_VAL=00 CC=RA TGT_GP=0 TGT_SR=0 SRC_GP=0 SRC_SR=0
tick 070 : rst=0 DECODE OPC=R_AND    SGN_EN=0 IMM_EN=0 IMM_VAL=000 IMMSR_VAL=00 CC=RA TGT_GP=3 TGT_SR=0 SRC_GP=c SRC_SR=0
tick 071 : rst=0 DECODE OPC=I_ANDi   SGN_EN=0 IMM_EN=1 IMM_VAL=00f IMMSR_VAL=00 CC=RA TGT_GP=1 TGT_SR=0 SRC_GP=0 SRC_SR=0
tick 072 : rst=0 DECODE OPC=I_ANDi   SGN_EN=0 IMM_EN=1 IMM_VAL=000 IMMSR_VAL=00 CC=RA TGT_GP=2 TGT_SR=0 SRC_GP=0 SRC_SR=0
tick 073 : rst=0 DECODE OPC=NOP      SGN_EN=0 IMM_EN=0 IMM_VAL=000 IMMSR_VAL=00 CC=RA TGT_GP=0 TGT_SR=0 SRC_GP=0 SRC_SR=0
tick 074 : rst=0 DECODE OPC=R_OR     SGN_EN=0 IMM_EN=0 IMM_VAL=000 IMMSR_VAL=00 CC=RA TGT_GP=3 TGT_SR=0 SRC_GP=b SRC_SR=0
tick 075 : rst=0 DECODE OPC=R_OR     SGN_EN=0 IMM_EN=0 IMM_VAL=000 IMMSR_VAL=00 CC=RA TGT_GP=4 TGT_SR=0 SRC_GP=c SRC_SR=0
tick 076 : rst=0 DECODE OPC=I_ORi    SGN_EN=0 IMM_EN=1 IMM_VAL=0f0 IMMSR_VAL=00 CC=RA TGT_GP=0 TGT_SR=0 SRC_GP=0 SRC_SR=0
tick 077 : rst=0 DECODE OPC=I_ORi    SGN_EN=0 IMM_EN=1 IMM_VAL=000 IMMSR_VAL=00 CC=RA TGT_GP=6 TGT_SR=0 SRC_GP=0 SRC_SR=0
tick 078 : rst=0 DECODE OPC=NOP      SGN_EN=0 IMM_EN=0 IMM_VAL=000 IMMSR_VAL=00 CC=RA TGT_GP=0 TGT_SR=0 SRC_GP=0 SRC_SR=0
tick 079 : rst=0 DECODE OPC=R_XOR    SGN_EN=0 IMM_EN=0 IMM_VAL=000 IMMSR_VAL=00 CC=RA TGT_GP=4 TGT_SR=0 SRC_GP=b SRC_SR=0
tick 080 : rst=0 DECODE OPC=R_XOR    SGN_EN=0 IMM_EN=0 IMM_VAL=000 IMMSR_VAL=00 CC=RA TGT_GP=5 TGT_SR=0 SRC_GP=c SRC_SR=0
tick 081 : rst=0 DECODE OPC=I_XORi   SGN_EN=0 IMM_EN=1 IMM_VAL=0ff IMMSR_VAL=00 CC=RA TGT_GP=1 TGT_SR=0 SRC_GP=0 SRC_SR=0
tick 082 : rst=0 DECODE OPC=I_XORi   SGN_EN=0 IMM_EN=1 IMM_VAL=000 IMMSR_VAL=00 CC=RA TGT_GP=2 TGT_SR=0 SRC_GP=0 SRC_SR=0
tick 083 : rst=0 DECODE OPC=IS_MOVis SGN_EN=1 IMM_EN=1 IMM_VAL=001 IMMSR_VAL=00 CC=RA TGT_GP=d TGT_SR=0 SRC_GP=0 SRC_SR=0
tick 084 : rst=0 DECODE OPC=NOP      SGN_EN=0 IMM_EN=0 IMM_VAL=000 IMMSR_VAL=00 CC=RA TGT_GP=0 TGT_SR=0 SRC_GP=0 SRC_SR=0
tick 085 : rst=0 DECODE OPC=NOP      SGN_EN=0 IMM_EN=0 IMM_VAL=000 IMMSR_VAL=00 CC=RA TGT_GP=0 TGT_SR=0 SRC_GP=0 SRC_SR=0
tick 086 : rst=0 DECODE OPC=NOP      SGN_EN=0 IMM_EN=0 IMM_VAL=000 IMMSR_VAL=00 CC=RA TGT_GP=0 TGT_SR=0 SRC_GP=0 SRC_SR=0
tick 087 : rst=0 DECODE OPC=R_SHL    SGN_EN=0 IMM_EN=0 IMM_VAL=000 IMMSR_VAL=00 CC=RA TGT_GP=4 TGT_SR=0 SRC_GP=d SRC_SR=0
tick 088 : rst=0 DECODE OPC=IS_MOVis SGN_EN=1 IMM_EN=1 IMM_VAL=020 IMMSR_VAL=00 CC=RA TGT_GP=e TGT_SR=0 SRC_GP=0 SRC_SR=0
tick 089 : rst=0 DECODE OPC=NOP      SGN_EN=0 IMM_EN=0 IMM_VAL=000 IMMSR_VAL=00 CC=RA TGT_GP=0 TGT_SR=0 SRC_GP=0 SRC_SR=0
tick 090 : rst=0 DECODE OPC=NOP      SGN_EN=0 IMM_EN=0 IMM_VAL=000 IMMSR_VAL=00 CC=RA TGT_GP=0 TGT_SR=0 SRC_GP=0 SRC_SR=0
tick 091 : rst=0 DECODE OPC=NOP      SGN_EN=0 IMM_EN=0 IMM_VAL=000 IMMSR_VAL=00 CC=RA TGT_GP=0 TGT_SR=0 SRC_GP=0 SRC_SR=0
tick 092 : rst=0 DECODE OPC=R_SHL    SGN_EN=0 IMM_EN=0 IMM_VAL=000 IMMSR_VAL=00 CC=RA TGT_GP=5 TGT_SR=0 SRC_GP=e SRC_SR=0
tick 093 : rst=0 DECODE OPC=I_SHLi   SGN_EN=0 IMM_EN=1 IMM_VAL=004 IMMSR_VAL=00 CC=RA TGT_GP=6 TGT_SR=0 SRC_GP=0 SRC_SR=0
tick 094 : rst=0 DECODE OPC=I_SHLi   SGN_EN=0 IMM_EN=1 IMM_VAL=020 IMMSR_VAL=00 CC=RA TGT_GP=7 TGT_SR=0 SRC_GP=0 SRC_SR=0
tick 095 : rst=0 DECODE OPC=IS_MOVis SGN_EN=1 IMM_EN=1 IMM_VAL=004 IMMSR_VAL=00 CC=RA TGT_GP=f TGT_SR=0 SRC_GP=0 SRC_SR=0
tick 096 : rst=0 DECODE OPC=NOP      SGN_EN=0 IMM_EN=0 IMM_VAL=000 IMMSR_VAL=00 CC=RA TGT_GP=0 TGT_SR=0 SRC_GP=0 SRC_SR=0
tick 097 : rst=0 DECODE OPC=NOP      SGN_EN=0 IMM_EN=0 IMM_VAL=000 IMMSR_VAL=00 CC=RA TGT_GP=0 TGT_SR=0 SRC_GP=0 SRC_SR=0
tick 098 : rst=0 DECODE OPC=NOP      SGN_EN=0 IMM_EN=0 IMM_VAL=000 IMMSR_VAL=00 CC=RA TGT_GP=0 TGT_SR=0 SRC_GP=0 SRC_SR=0
tick 099 : rst=0 DECODE OPC=R_SHR    SGN_EN=0 IMM_EN=0 IMM_VAL=000 IMMSR_VAL=00 CC=RA TGT_GP=4 TGT_SR=0 SRC_GP=f SRC_SR=0
tick 100 : rst=0 DECODE OPC=IS_MOVis SGN_EN=1 IMM_EN=1 IMM_VAL=020 IMMSR_VAL=00 CC=RA TGT_GP=0 TGT_SR=0 SRC_GP=0 SRC_SR=0
tick 101 : rst=0 DECODE OPC=NOP      SGN_EN=0 IMM_EN=0 IMM_VAL=000 IMMSR_VAL=00 CC=RA TGT_GP=0 TGT_SR=0 SRC_GP=0 SRC_SR=0
tick 102 : rst=0 DECODE OPC=NOP      SGN_EN=0 IMM_EN=0 IMM_VAL=000 IMMSR_VAL=00 CC=RA TGT_GP=0 TGT_SR=0 SRC_GP=0 SRC_SR=0
tick 103 : rst=0 DECODE OPC=NOP      SGN_EN=0 IMM_EN=0 IMM_VAL=000 IMMSR_VAL=00 CC=RA TGT_GP=0 TGT_SR=0 SRC_GP=0 SRC_SR=0
tick 104 : rst=0 DECODE OPC=R_SHR    SGN_EN=0 IMM_EN=0 IMM_VAL=000 IMMSR_VAL=00 CC=RA TGT_GP=5 TGT_SR=0 SRC_GP=0 SRC_SR=0
tick 105 : rst=0 DECODE OPC=I_SHRi   SGN_EN=0 IMM_EN=1 IMM_VAL=004 IMMSR_VAL=00 CC=RA TGT_GP=6 TGT_SR=0 SRC_GP=0 SRC_SR=0
tick 106 : rst=0 DECODE OPC=I_SHRi   SGN_EN=0 IMM_EN=1 IMM_VAL=020 IMMSR_VAL=00 CC=RA TGT_GP=7 TGT_SR=0 SRC_GP=0 SRC_SR=0
tick 107 : rst=0 DECODE OPC=IS_MOVis SGN_EN=1 IMM_EN=1 IMM_VAL=001 IMMSR_VAL=00 CC=RA TGT_GP=8 TGT_SR=0 SRC_GP=0 SRC_SR=0
tick 108 : rst=0 DECODE OPC=NOP      SGN_EN=0 IMM_EN=0 IMM_VAL=000 IMMSR_VAL=00 CC=RA TGT_GP=0 TGT_SR=0 SRC_GP=0 SRC_SR=0
tick 109 : rst=0 DECODE OPC=NOP      SGN_EN=0 IMM_EN=0 IMM_VAL=000 IMMSR_VAL=00 CC=RA TGT_GP=0 TGT_SR=0 SRC_GP=0 SRC_SR=0
tick 110 : rst=0 DECODE OPC=NOP      SGN_EN=0 IMM_EN=0 IMM_VAL=000 IMMSR_VAL=00 CC=RA TGT_GP=0 TGT_SR=0 SRC_GP=0 SRC_SR=0
tick 111 : rst=0 DECODE OPC=RS_SHRs  SGN_EN=1 IMM_EN=0 IMM_VAL=000 IMMSR_VAL=00 CC=RA TGT_GP=3 TGT_SR=0 SRC_GP=8 SRC_SR=0
tick 112 : rst=0 DECODE OPC=IS_MOVis SGN_EN=1 IMM_EN=1 IMM_VAL=020 IMMSR_VAL=00 CC=RA TGT_GP=9 TGT_SR=0 SRC_GP=0 SRC_SR=0
tick 113 : rst=0 DECODE OPC=NOP      SGN_EN=0 IMM_EN=0 IMM_VAL=000 IMMSR_VAL=00 CC=RA TGT_GP=0 TGT_SR=0 SRC_GP=0 SRC_SR=0
tick 114 : rst=0 DECODE OPC=NOP      SGN_EN=0 IMM_EN=0 IMM_VAL=000 IMMSR_VAL=00 CC=RA TGT_GP=0 TGT_SR=0 SRC_GP=0 SRC_SR=0
tick 115 : rst=0 DECODE OPC=NOP      SGN_EN=0 IMM_EN=0 IMM_VAL=000 IMMSR_VAL=00 CC=RA TGT_GP=0 TGT_SR=0 SRC_GP=0 SRC_SR=0
tick 116 : rst=0 DECODE OPC=RS_SHRs  SGN_EN=1 IMM_EN=0 IMM_VAL=000 IMMSR_VAL=00 CC=RA TGT_GP=5 TGT_SR=0 SRC_GP=9 SRC_SR=0
tick 117 : rst=0 DECODE OPC=IS_SHRis SGN_EN=1 IMM_EN=1 IMM_VAL=001 IMMSR_VAL=00 CC=RA TGT_GP=3 TGT_SR=0 SRC_GP=0 SRC_SR=0
tick 118 : rst=0 DECODE OPC=IS_SHRis SGN_EN=1 IMM_EN=1 IMM_VAL=020 IMMSR_VAL=00 CC=RA TGT_GP=4 TGT_SR=0 SRC_GP=0 SRC_SR=0
tick 119 : rst=0 DECODE OPC=R_CMP    SGN_EN=0 IMM_EN=0 IMM_VAL=000 IMMSR_VAL=00 CC=RA TGT_GP=0 TGT_SR=0 SRC_GP=0 SRC_SR=0
tick 120 : rst=0 DECODE OPC=R_CMP    SGN_EN=0 IMM_EN=0 IMM_VAL=000 IMMSR_VAL=00 CC=RA TGT_GP=2 TGT_SR=0 SRC_GP=1 SRC_SR=0
tick 121 : rst=0 DECODE OPC=I_CMPi   SGN_EN=0 IMM_EN=1 IMM_VAL=0ff IMMSR_VAL=00 CC=RA TGT_GP=1 TGT_SR=0 SRC_GP=0 SRC_SR=0
tick 122 : rst=0 DECODE OPC=I_CMPi   SGN_EN=0 IMM_EN=1 IMM_VAL=000 IMMSR_VAL=00 CC=RA TGT_GP=2 TGT_SR=0 SRC_GP=0 SRC_SR=0
tick 123 : rst=0 DECODE OPC=RS_CMPs  SGN_EN=1 IMM_EN=0 IMM_VAL=000 IMMSR_VAL=00 CC=RA TGT_GP=5 TGT_SR=0 SRC_GP=3 SRC_SR=0
tick 124 : rst=0 DECODE OPC=RS_CMPs  SGN_EN=1 IMM_EN=0 IMM_VAL=000 IMMSR_VAL=00 CC=RA TGT_GP=6 TGT_SR=0 SRC_GP=2 SRC_SR=0
tick 125 : rst=0 DECODE OPC=IS_CMPis SGN_EN=1 IMM_EN=1 IMM_VAL=fff IMMSR_VAL=00 CC=RA TGT_GP=7 TGT_SR=0 SRC_GP=0 SRC_SR=0
tick 126 : rst=0 DECODE OPC=IS_CMPis SGN_EN=1 IMM_EN=1 IMM_VAL=7ff IMMSR_VAL=00 CC=RA TGT_GP=8 TGT_SR=0 SRC_GP=0 SRC_SR=0
tick 127 : rst=0 DECODE OPC=S_LUI    SGN_EN=0 IMM_EN=1 IMM_VAL=123 IMMSR_VAL=00 CC=RA TGT_GP=0 TGT_SR=0 SRC_GP=0 SRC_SR=0
tick 128 : rst=0 DECODE OPC=S_SRMOV  SGN_EN=0 IMM_EN=0 IMM_VAL=000 IMMSR_VAL=00 CC=RA TGT_GP=0 TGT_SR=1 SRC_GP=0 SRC_SR=f
tick 129 : rst=0 DECODE OPC=S_HLT    SGN_EN=0 IMM_EN=0 IMM_VAL=000 IMMSR_VAL=00 CC=RA TGT_GP=0 TGT_SR=0 SRC_GP=0 SRC_SR=0
tick 130 : rst=0 DECODE OPC=NOP      SGN_EN=0 IMM_EN=0 IMM_VAL=000 IMMSR_VAL=00 CC=RA TGT_GP=0 TGT_SR=0 SRC_GP=0 SRC_SR=0
tick 131 : rst=0 DECODE OPC=NOP      SGN_EN=0 IMM_EN=0 IMM_VAL=000 IMMSR_VAL=00 CC=RA TGT_GP=0 TGT_SR=0 SRC_GP=0 SRC_SR=0
tick 132 : rst=0 DECODE OPC=NOP      SGN_EN=0 IMM_EN=0 IMM_VAL=000 IMMSR_VAL=00 CC=RA TGT_GP=0 TGT_SR=0 SRC_GP=0 SRC_SR=0
tick 133 : rst=0 DECODE OPC=NOP      SGN_EN=0 IMM_EN=0 IMM_VAL=000 IMMSR_VAL=00 CC=RA TGT_GP=0 TGT_SR=0 SRC_GP=0 SRC_SR=0
tick 134 : rst=0 DECODE OPC=NOP      SGN_EN=0 IMM_EN=0 IMM_VAL=000 IMMSR_VAL=00 CC=RA TGT_GP=0 TGT_SR=0 SRC_GP=0 SRC_SR=0
src/testbench.v:22: $finish called at 1345000 (1ps)
